0000.000 (0) Opened log file at time: Tue, 13 Oct 2015 21:26:32 +0000 on http://impulsealarm.com
0000.003 (0) UpdraftPlus WordPress backup plugin (https://updraftplus.com): 1.11.12 WP: 4.3.1 PHP: 5.4.44 (Linux ip-192-169-235-156.secureserver.net 2.6.32-042stab103.6 #1 SMP Wed Jan 21 13:07:39 MSK 2015 x86_64) MySQL: 5.5.45 Server: Apache/2.4.16 (Unix) OpenSSL/1.0.1e-fips mod_bwlimited/1.4 safe_mode: 0 max_execution_time: 900 memory_limit: 256M (used: 32.3M | 32.8M) multisite: N mcrypt: Y LANG:  ZipArchive::addFile: Y
0000.006 (0) Free space on disk containing Updraft's temporary directory: 27739.2 Mb
0000.010 (0) Tasks: Backup files: 1 (schedule: twicedaily) Backup DB:  (schedule: twicedaily)
0000.012 (0) Processed schedules. Tasks now: Backup files: 1 Backup DB: 1
0000.020 (0) Requesting semaphore lock (fd)
0000.023 (0) Set semaphore last lock (fd) time to 2015-10-13 21:26:32
0000.025 (0) Semaphore lock (fd) complete
0000.034 (0) Backup run: resumption=0, nonce=9d03cab589a7, begun at=1444771592 (0s ago), job type=backup
0000.038 (0) Scheduling a resumption (1) after 300 seconds (1444771892) in case this run gets aborted
0000.057 (0) OpenVZ; reported memory: 2048 Mb
0000.059 (0) Checking if we have a zip executable available
0000.064 (0) Creation of backups of directories: beginning
0000.071 (0) Beginning creation of dump of plugins (split every: 500 Mb)
0000.218 (0) Total entities for the zip file: 460 directories, 2898 files (0 skipped as non-modified), 39.7 Mb
0000.235 (0) Zip: backup_2015-10-13-2126_Impulse_Alaram_ADT_Authorized__9d03cab589a7-plugins.zip.tmp: 100 files added (on-disk size: 0 Kb)
0000.246 (0) Zip: backup_2015-10-13-2126_Impulse_Alaram_ADT_Authorized__9d03cab589a7-plugins.zip.tmp: 200 files added (on-disk size: 0 Kb)
0000.257 (0) Zip: backup_2015-10-13-2126_Impulse_Alaram_ADT_Authorized__9d03cab589a7-plugins.zip.tmp: 300 files added (on-disk size: 0 Kb)
0000.269 (0) Zip: backup_2015-10-13-2126_Impulse_Alaram_ADT_Authorized__9d03cab589a7-plugins.zip.tmp: 400 files added (on-disk size: 0 Kb)
0000.282 (0) Zip: backup_2015-10-13-2126_Impulse_Alaram_ADT_Authorized__9d03cab589a7-plugins.zip.tmp: 500 files added (on-disk size: 0 Kb)
0000.284 (0) Adding batch to zip file (UpdraftPlus_ZipArchive): over 500 files added on this batch (4.6 Mb, 2898 files batched, 501 (501) added so far); re-opening (prior size: 0 Kb)
0000.703 (0) Zip: backup_2015-10-13-2126_Impulse_Alaram_ADT_Authorized__9d03cab589a7-plugins.zip.tmp: 600 files added (on-disk size: 1890.6 Kb)
0000.717 (0) Zip: backup_2015-10-13-2126_Impulse_Alaram_ADT_Authorized__9d03cab589a7-plugins.zip.tmp: 700 files added (on-disk size: 1890.6 Kb)
0000.732 (0) Zip: backup_2015-10-13-2126_Impulse_Alaram_ADT_Authorized__9d03cab589a7-plugins.zip.tmp: 800 files added (on-disk size: 1890.6 Kb)
0000.748 (0) Zip: backup_2015-10-13-2126_Impulse_Alaram_ADT_Authorized__9d03cab589a7-plugins.zip.tmp: 900 files added (on-disk size: 1890.6 Kb)
0000.764 (0) Zip: backup_2015-10-13-2126_Impulse_Alaram_ADT_Authorized__9d03cab589a7-plugins.zip.tmp: 1000 files added (on-disk size: 1890.6 Kb)
0000.767 (0) Adding batch to zip file (UpdraftPlus_ZipArchive): over 500 files added on this batch (8.1 Mb, 2898 files batched, 501 (1002) added so far); re-opening (prior size: 1890.6 Kb)
0001.485 (0) Zip: backup_2015-10-13-2126_Impulse_Alaram_ADT_Authorized__9d03cab589a7-plugins.zip.tmp: 1100 files added (on-disk size: 4865.9 Kb)
0001.504 (0) Zip: backup_2015-10-13-2126_Impulse_Alaram_ADT_Authorized__9d03cab589a7-plugins.zip.tmp: 1200 files added (on-disk size: 4865.9 Kb)
0001.524 (0) Zip: backup_2015-10-13-2126_Impulse_Alaram_ADT_Authorized__9d03cab589a7-plugins.zip.tmp: 1300 files added (on-disk size: 4865.9 Kb)
0001.543 (0) Zip: backup_2015-10-13-2126_Impulse_Alaram_ADT_Authorized__9d03cab589a7-plugins.zip.tmp: 1400 files added (on-disk size: 4865.9 Kb)
0001.564 (0) Zip: backup_2015-10-13-2126_Impulse_Alaram_ADT_Authorized__9d03cab589a7-plugins.zip.tmp: 1500 files added (on-disk size: 4865.9 Kb)
0001.567 (0) Adding batch to zip file (UpdraftPlus_ZipArchive): over 500 files added on this batch (2.3 Mb, 2898 files batched, 501 (1503) added so far); re-opening (prior size: 4865.9 Kb)
0001.867 (0) Zip: backup_2015-10-13-2126_Impulse_Alaram_ADT_Authorized__9d03cab589a7-plugins.zip.tmp: 1600 files added (on-disk size: 5541.4 Kb)
0001.889 (0) Zip: backup_2015-10-13-2126_Impulse_Alaram_ADT_Authorized__9d03cab589a7-plugins.zip.tmp: 1700 files added (on-disk size: 5541.4 Kb)
0001.912 (0) Zip: backup_2015-10-13-2126_Impulse_Alaram_ADT_Authorized__9d03cab589a7-plugins.zip.tmp: 1800 files added (on-disk size: 5541.4 Kb)
0001.932 (0) Zip: backup_2015-10-13-2126_Impulse_Alaram_ADT_Authorized__9d03cab589a7-plugins.zip.tmp: 1900 files added (on-disk size: 5541.4 Kb)
0001.951 (0) Zip: backup_2015-10-13-2126_Impulse_Alaram_ADT_Authorized__9d03cab589a7-plugins.zip.tmp: 2000 files added (on-disk size: 5541.4 Kb)
0001.954 (0) Adding batch to zip file (UpdraftPlus_ZipArchive): over 500 files added on this batch (14 Mb, 2898 files batched, 501 (2004) added so far); re-opening (prior size: 5541.4 Kb)
0003.450 (0) Zip: backup_2015-10-13-2126_Impulse_Alaram_ADT_Authorized__9d03cab589a7-plugins.zip.tmp: 2100 files added (on-disk size: 10038.4 Kb)
0003.472 (0) Zip: backup_2015-10-13-2126_Impulse_Alaram_ADT_Authorized__9d03cab589a7-plugins.zip.tmp: 2200 files added (on-disk size: 10038.4 Kb)
0003.494 (0) Zip: backup_2015-10-13-2126_Impulse_Alaram_ADT_Authorized__9d03cab589a7-plugins.zip.tmp: 2300 files added (on-disk size: 10038.4 Kb)
0003.517 (0) Zip: backup_2015-10-13-2126_Impulse_Alaram_ADT_Authorized__9d03cab589a7-plugins.zip.tmp: 2400 files added (on-disk size: 10038.4 Kb)
0003.540 (0) Zip: backup_2015-10-13-2126_Impulse_Alaram_ADT_Authorized__9d03cab589a7-plugins.zip.tmp: 2500 files added (on-disk size: 10038.4 Kb)
0003.544 (0) Adding batch to zip file (UpdraftPlus_ZipArchive): over 500 files added on this batch (5.7 Mb, 2898 files batched, 501 (2505) added so far); re-opening (prior size: 10038.4 Kb)
0004.062 (0) Zip: backup_2015-10-13-2126_Impulse_Alaram_ADT_Authorized__9d03cab589a7-plugins.zip.tmp: 2600 files added (on-disk size: 13131.2 Kb)
0004.087 (0) Zip: backup_2015-10-13-2126_Impulse_Alaram_ADT_Authorized__9d03cab589a7-plugins.zip.tmp: 2700 files added (on-disk size: 13131.2 Kb)
0004.112 (0) Zip: backup_2015-10-13-2126_Impulse_Alaram_ADT_Authorized__9d03cab589a7-plugins.zip.tmp: 2800 files added (on-disk size: 13131.2 Kb)
0004.718 (0) Created plugins zip (0) - 14396.1 Kb in 4.6 s (3100.1 Kb/s) (SHA1 checksum: e66842d54ffd52c1688d15e2ad28407d0b0d8565)
0004.725 (0) Beginning creation of dump of themes (split every: 500 Mb)
0004.758 (0) Total entities for the zip file: 83 directories, 655 files (0 skipped as non-modified), 6.9 Mb
0004.766 (0) Zip: backup_2015-10-13-2126_Impulse_Alaram_ADT_Authorized__9d03cab589a7-themes.zip.tmp: 100 files added (on-disk size: 0 Kb)
0004.775 (0) Zip: backup_2015-10-13-2126_Impulse_Alaram_ADT_Authorized__9d03cab589a7-themes.zip.tmp: 200 files added (on-disk size: 0 Kb)
0004.784 (0) Zip: backup_2015-10-13-2126_Impulse_Alaram_ADT_Authorized__9d03cab589a7-themes.zip.tmp: 300 files added (on-disk size: 0 Kb)
0004.794 (0) Zip: backup_2015-10-13-2126_Impulse_Alaram_ADT_Authorized__9d03cab589a7-themes.zip.tmp: 400 files added (on-disk size: 0 Kb)
0004.805 (0) Zip: backup_2015-10-13-2126_Impulse_Alaram_ADT_Authorized__9d03cab589a7-themes.zip.tmp: 500 files added (on-disk size: 0 Kb)
0004.808 (0) Adding batch to zip file (UpdraftPlus_ZipArchive): over 500 files added on this batch (5.5 Mb, 655 files batched, 501 (501) added so far); re-opening (prior size: 0 Kb)
0005.152 (0) Zip: backup_2015-10-13-2126_Impulse_Alaram_ADT_Authorized__9d03cab589a7-themes.zip.tmp: 600 files added (on-disk size: 3222.5 Kb)
0005.315 (0) Created themes zip (0) - 4154.9 Kb in 0.6 s (7079.3 Kb/s) (SHA1 checksum: 33e3e30bc24b545edcc145fb1cb7e22742a91ac9)
0005.322 (0) Exclusion option setting (uploads): backup*,*backups,backwpup*,wp-clone
0005.324 (0) Looking for candidates to back up in: /home/imagineavs/public_html/impulsealarm.com/wp-content/uploads
0005.327 (0) finding files: woocommerce_uploads: adding to list (1)
0005.329 (0) finding files: 2015: adding to list (2)
0005.331 (0) finding files: wc-logs: adding to list (3)
0005.334 (0) Beginning creation of dump of uploads (split every: 500 Mb)
0005.344 (0) Total entities for the zip file: 4 directories, 107 files (0 skipped as non-modified), 8.2 Mb
0005.351 (0) Zip: backup_2015-10-13-2126_Impulse_Alaram_ADT_Authorized__9d03cab589a7-uploads.zip.tmp: 100 files added (on-disk size: 0 Kb)
0005.780 (0) Created uploads zip (0) - 8315.5 Kb in 0.4 s (18770.9 Kb/s) (SHA1 checksum: 498ec3ac251ce9045cbbf36b58f28911122a9e74)
0005.786 (0) Beginning backup of other directories found in the content directory (index: 0)
0005.788 (0) Exclusion option setting (others): upgrade,cache,updraft,backup*,*backups,mysql.sql
0005.791 (0) Looking for candidates to back up in: /home/imagineavs/public_html/impulsealarm.com/wp-content
0005.793 (0) finding files: plugins: skipping: this is the plugins directory
0005.795 (0) finding files: index.php: adding to list (1)
0005.797 (0) finding files: upgrade: skipping: excluded by options
0005.799 (0) finding files: themes: skipping: this is the themes directory
0005.801 (0) finding files: updraft: skipping: this is the updraft directory
0005.804 (0) finding files: uploads: skipping: this is the uploads directory
0005.810 (0) Total entities for the zip file: 0 directories, 1 files (0 skipped as non-modified), 0 Mb
0005.817 (0) Created others zip (0) - 0.1 Kb in 0 s (13.8 Kb/s) (SHA1 checksum: 1b972bd0c3ef34544a6096c1c060bf768e9d3be3)
0005.828 (0) Saving backup status to database (elements: 8)
0005.833 (0) Beginning creation of database dump (WordPress DB)
0005.848 (0) Table wp_options: Total expected rows (approximate): 1142
0005.930 (0) Table wp_options: Total rows added: 1139 in 0.08 seconds
0005.933 (0) Table wp_options: finishing file (backup_2015-10-13-2126_Impulse_Alaram_ADT_Authorized__9d03cab589a7-db-table-wp_options.table.gz - 117.3 Kb)
0005.941 (0) Table wp_users: Total expected rows (approximate): 1
0005.945 (0) Table wp_users: Total rows added: 1 in 0.00 seconds
0005.948 (0) Table wp_users: finishing file (backup_2015-10-13-2126_Impulse_Alaram_ADT_Authorized__9d03cab589a7-db-table-wp_users.table.gz - 0.5 Kb)
0005.956 (0) Table wp_usermeta: Total expected rows (approximate): 28
0005.960 (0) Table wp_usermeta: Total rows added: 28 in 0.00 seconds
0005.963 (0) Table wp_usermeta: finishing file (backup_2015-10-13-2126_Impulse_Alaram_ADT_Authorized__9d03cab589a7-db-table-wp_usermeta.table.gz - 1.7 Kb)
0005.971 (0) Table wp_commentmeta: Total expected rows (approximate): 0
0005.974 (0) Table wp_commentmeta: Total rows added: 0 in 0.00 seconds
0005.977 (0) Table wp_commentmeta: finishing file (backup_2015-10-13-2126_Impulse_Alaram_ADT_Authorized__9d03cab589a7-db-table-wp_commentmeta.table.gz - 0.4 Kb)
0005.985 (0) Table wp_comments: Total expected rows (approximate): 1
0005.989 (0) Table wp_comments: Total rows added: 1 in 0.00 seconds
0005.992 (0) Table wp_comments: finishing file (backup_2015-10-13-2126_Impulse_Alaram_ADT_Authorized__9d03cab589a7-db-table-wp_comments.table.gz - 0.7 Kb)
0006.000 (0) Table wp_links: Total expected rows (approximate): 0
0006.004 (0) Table wp_links: Total rows added: 0 in 0.00 seconds
0006.006 (0) Table wp_links: finishing file (backup_2015-10-13-2126_Impulse_Alaram_ADT_Authorized__9d03cab589a7-db-table-wp_links.table.gz - 0.4 Kb)
0006.015 (0) Table wp_postmeta: Total expected rows (approximate): 511
0006.040 (0) Table wp_postmeta: Total rows added: 511 in 0.02 seconds
0006.043 (0) Table wp_postmeta: finishing file (backup_2015-10-13-2126_Impulse_Alaram_ADT_Authorized__9d03cab589a7-db-table-wp_postmeta.table.gz - 6.3 Kb)
0006.053 (0) Table wp_posts: Total expected rows (approximate): 293
0006.131 (0) Table wp_posts: Total rows added: 293 in 0.07 seconds
0006.134 (0) Table wp_posts: finishing file (backup_2015-10-13-2126_Impulse_Alaram_ADT_Authorized__9d03cab589a7-db-table-wp_posts.table.gz - 23.9 Kb)
0006.144 (0) Table wp_term_relationships: Total expected rows (approximate): 16
0006.149 (0) Table wp_term_relationships: Total rows added: 16 in 0.00 seconds
0006.152 (0) Table wp_term_relationships: finishing file (backup_2015-10-13-2126_Impulse_Alaram_ADT_Authorized__9d03cab589a7-db-table-wp_term_relationships.table.gz - 0.4 Kb)
0006.163 (0) Table wp_term_taxonomy: Total expected rows (approximate): 10
0006.169 (0) Table wp_term_taxonomy: Total rows added: 10 in 0.00 seconds
0006.172 (0) Table wp_term_taxonomy: finishing file (backup_2015-10-13-2126_Impulse_Alaram_ADT_Authorized__9d03cab589a7-db-table-wp_term_taxonomy.table.gz - 0.5 Kb)
0006.183 (0) Table wp_terms: Total expected rows (approximate): 10
0006.189 (0) Table wp_terms: Total rows added: 10 in 0.00 seconds
0006.192 (0) Table wp_terms: finishing file (backup_2015-10-13-2126_Impulse_Alaram_ADT_Authorized__9d03cab589a7-db-table-wp_terms.table.gz - 0.5 Kb)
0006.203 (0) Table wp_woocommerce_order_itemmeta: Total expected rows (approximate): 0
0006.207 (0) Table wp_woocommerce_order_itemmeta: Total rows added: 0 in 0.00 seconds
0006.210 (0) Table wp_woocommerce_order_itemmeta: finishing file (backup_2015-10-13-2126_Impulse_Alaram_ADT_Authorized__9d03cab589a7-db-table-wp_woocommerce_order_itemmeta.table.gz - 0.4 Kb)
0006.221 (0) Table wp_woocommerce_termmeta: Total expected rows (approximate): 4
0006.226 (0) Table wp_woocommerce_termmeta: Total rows added: 4 in 0.00 seconds
0006.229 (0) Table wp_woocommerce_termmeta: finishing file (backup_2015-10-13-2126_Impulse_Alaram_ADT_Authorized__9d03cab589a7-db-table-wp_woocommerce_termmeta.table.gz - 0.4 Kb)
0006.240 (0) Table wp_nf_objectmeta: Total expected rows (approximate): 82
0006.248 (0) Table wp_nf_objectmeta: Total rows added: 82 in 0.01 seconds
0006.251 (0) Table wp_nf_objectmeta: finishing file (backup_2015-10-13-2126_Impulse_Alaram_ADT_Authorized__9d03cab589a7-db-table-wp_nf_objectmeta.table.gz - 1.1 Kb)
0006.262 (0) Table wp_nf_objects: Total expected rows (approximate): 5
0006.266 (0) Table wp_nf_objects: Total rows added: 5 in 0.00 seconds
0006.269 (0) Table wp_nf_objects: finishing file (backup_2015-10-13-2126_Impulse_Alaram_ADT_Authorized__9d03cab589a7-db-table-wp_nf_objects.table.gz - 0.3 Kb)
0006.281 (0) Table wp_nf_relationships: Total expected rows (approximate): 3
0006.285 (0) Table wp_nf_relationships: Total rows added: 3 in 0.00 seconds
0006.289 (0) Table wp_nf_relationships: finishing file (backup_2015-10-13-2126_Impulse_Alaram_ADT_Authorized__9d03cab589a7-db-table-wp_nf_relationships.table.gz - 0.4 Kb)
0006.300 (0) Table wp_ninja_forms_fav_fields: Total expected rows (approximate): 17
0006.308 (0) Table wp_ninja_forms_fav_fields: Total rows added: 17 in 0.00 seconds
0006.312 (0) Table wp_ninja_forms_fav_fields: finishing file (backup_2015-10-13-2126_Impulse_Alaram_ADT_Authorized__9d03cab589a7-db-table-wp_ninja_forms_fav_fields.table.gz - 2.6 Kb)
0006.323 (0) Table wp_ninja_forms_fields: Total expected rows (approximate): 21
0006.329 (0) Table wp_ninja_forms_fields: Total rows added: 21 in 0.00 seconds
0006.333 (0) Table wp_ninja_forms_fields: finishing file (backup_2015-10-13-2126_Impulse_Alaram_ADT_Authorized__9d03cab589a7-db-table-wp_ninja_forms_fields.table.gz - 2.3 Kb)
0006.344 (0) Table wp_social_users: Total expected rows (approximate): 0
0006.348 (0) Table wp_social_users: Total rows added: 0 in 0.00 seconds
0006.351 (0) Table wp_social_users: finishing file (backup_2015-10-13-2126_Impulse_Alaram_ADT_Authorized__9d03cab589a7-db-table-wp_social_users.table.gz - 0.3 Kb)
0006.362 (0) Table wp_taxonomymeta: Total expected rows (approximate): 0
0006.366 (0) Table wp_taxonomymeta: Total rows added: 0 in 0.00 seconds
0006.370 (0) Table wp_taxonomymeta: finishing file (backup_2015-10-13-2126_Impulse_Alaram_ADT_Authorized__9d03cab589a7-db-table-wp_taxonomymeta.table.gz - 0.4 Kb)
0006.381 (0) Table wp_woocommerce_api_keys: Total expected rows (approximate): 0
0006.385 (0) Table wp_woocommerce_api_keys: Total rows added: 0 in 0.00 seconds
0006.388 (0) Table wp_woocommerce_api_keys: finishing file (backup_2015-10-13-2126_Impulse_Alaram_ADT_Authorized__9d03cab589a7-db-table-wp_woocommerce_api_keys.table.gz - 0.4 Kb)
0006.399 (0) Table wp_woocommerce_attribute_taxonomies: Total expected rows (approximate): 0
0006.403 (0) Table wp_woocommerce_attribute_taxonomies: Total rows added: 0 in 0.00 seconds
0006.406 (0) Table wp_woocommerce_attribute_taxonomies: finishing file (backup_2015-10-13-2126_Impulse_Alaram_ADT_Authorized__9d03cab589a7-db-table-wp_woocommerce_attribute_taxonomies.table.gz - 0.4 Kb)
0006.417 (0) Table wp_woocommerce_downloadable_product_permissions: Total expected rows (approximate): 0
0006.421 (0) Table wp_woocommerce_downloadable_product_permissions: Total rows added: 0 in 0.00 seconds
0006.425 (0) Table wp_woocommerce_downloadable_product_permissions: finishing file (backup_2015-10-13-2126_Impulse_Alaram_ADT_Authorized__9d03cab589a7-db-table-wp_woocommerce_downloadable_product_permissions.table.gz - 0.5 Kb)
0006.435 (0) Table wp_woocommerce_order_items: Total expected rows (approximate): 0
0006.439 (0) Table wp_woocommerce_order_items: Total rows added: 0 in 0.00 seconds
0006.442 (0) Table wp_woocommerce_order_items: finishing file (backup_2015-10-13-2126_Impulse_Alaram_ADT_Authorized__9d03cab589a7-db-table-wp_woocommerce_order_items.table.gz - 0.3 Kb)
0006.454 (0) Table wp_woocommerce_tax_rate_locations: Total expected rows (approximate): 0
0006.458 (0) Table wp_woocommerce_tax_rate_locations: Total rows added: 0 in 0.00 seconds
0006.461 (0) Table wp_woocommerce_tax_rate_locations: finishing file (backup_2015-10-13-2126_Impulse_Alaram_ADT_Authorized__9d03cab589a7-db-table-wp_woocommerce_tax_rate_locations.table.gz - 0.4 Kb)
0006.472 (0) Table wp_woocommerce_tax_rates: Total expected rows (approximate): 1
0006.477 (0) Table wp_woocommerce_tax_rates: Total rows added: 1 in 0.00 seconds
0006.480 (0) Table wp_woocommerce_tax_rates: finishing file (backup_2015-10-13-2126_Impulse_Alaram_ADT_Authorized__9d03cab589a7-db-table-wp_woocommerce_tax_rates.table.gz - 0.5 Kb)
0006.491 (0) Table wp_yith_wcwl: Total expected rows (approximate): 0
0006.495 (0) Table wp_yith_wcwl: Total rows added: 0 in 0.00 seconds
0006.499 (0) Table wp_yith_wcwl: finishing file (backup_2015-10-13-2126_Impulse_Alaram_ADT_Authorized__9d03cab589a7-db-table-wp_yith_wcwl.table.gz - 0.3 Kb)
0006.509 (0) Table wp_yith_wcwl_lists: Total expected rows (approximate): 0
0006.513 (0) Table wp_yith_wcwl_lists: Total rows added: 0 in 0.00 seconds
0006.517 (0) Table wp_yith_wcwl_lists: finishing file (backup_2015-10-13-2126_Impulse_Alaram_ADT_Authorized__9d03cab589a7-db-table-wp_yith_wcwl_lists.table.gz - 0.4 Kb)
0006.527 (0) backup_2015-10-13-2126_Impulse_Alaram_ADT_Authorized__9d03cab589a7-db-table-wp_options.table.gz (1/28): adding to final database dump
0006.565 (0) backup_2015-10-13-2126_Impulse_Alaram_ADT_Authorized__9d03cab589a7-db-table-wp_users.table.gz (2/28): adding to final database dump
0006.568 (0) backup_2015-10-13-2126_Impulse_Alaram_ADT_Authorized__9d03cab589a7-db-table-wp_usermeta.table.gz (3/28): adding to final database dump
0006.572 (0) backup_2015-10-13-2126_Impulse_Alaram_ADT_Authorized__9d03cab589a7-db-table-wp_commentmeta.table.gz (4/28): adding to final database dump
0006.575 (0) backup_2015-10-13-2126_Impulse_Alaram_ADT_Authorized__9d03cab589a7-db-table-wp_comments.table.gz (5/28): adding to final database dump
0006.578 (0) backup_2015-10-13-2126_Impulse_Alaram_ADT_Authorized__9d03cab589a7-db-table-wp_links.table.gz (6/28): adding to final database dump
0006.582 (0) backup_2015-10-13-2126_Impulse_Alaram_ADT_Authorized__9d03cab589a7-db-table-wp_postmeta.table.gz (7/28): adding to final database dump
0006.589 (0) backup_2015-10-13-2126_Impulse_Alaram_ADT_Authorized__9d03cab589a7-db-table-wp_posts.table.gz (8/28): adding to final database dump
0006.603 (0) backup_2015-10-13-2126_Impulse_Alaram_ADT_Authorized__9d03cab589a7-db-table-wp_term_relationships.table.gz (9/28): adding to final database dump
0006.606 (0) backup_2015-10-13-2126_Impulse_Alaram_ADT_Authorized__9d03cab589a7-db-table-wp_term_taxonomy.table.gz (10/28): adding to final database dump
0006.609 (0) backup_2015-10-13-2126_Impulse_Alaram_ADT_Authorized__9d03cab589a7-db-table-wp_terms.table.gz (11/28): adding to final database dump
0006.612 (0) backup_2015-10-13-2126_Impulse_Alaram_ADT_Authorized__9d03cab589a7-db-table-wp_woocommerce_order_itemmeta.table.gz (12/28): adding to final database dump
0006.616 (0) backup_2015-10-13-2126_Impulse_Alaram_ADT_Authorized__9d03cab589a7-db-table-wp_woocommerce_termmeta.table.gz (13/28): adding to final database dump
0006.619 (0) backup_2015-10-13-2126_Impulse_Alaram_ADT_Authorized__9d03cab589a7-db-table-wp_nf_objectmeta.table.gz (14/28): adding to final database dump
0006.622 (0) backup_2015-10-13-2126_Impulse_Alaram_ADT_Authorized__9d03cab589a7-db-table-wp_nf_objects.table.gz (15/28): adding to final database dump
0006.626 (0) backup_2015-10-13-2126_Impulse_Alaram_ADT_Authorized__9d03cab589a7-db-table-wp_nf_relationships.table.gz (16/28): adding to final database dump
0006.629 (0) backup_2015-10-13-2126_Impulse_Alaram_ADT_Authorized__9d03cab589a7-db-table-wp_ninja_forms_fav_fields.table.gz (17/28): adding to final database dump
0006.633 (0) backup_2015-10-13-2126_Impulse_Alaram_ADT_Authorized__9d03cab589a7-db-table-wp_ninja_forms_fields.table.gz (18/28): adding to final database dump
0006.637 (0) backup_2015-10-13-2126_Impulse_Alaram_ADT_Authorized__9d03cab589a7-db-table-wp_social_users.table.gz (19/28): adding to final database dump
0006.640 (0) backup_2015-10-13-2126_Impulse_Alaram_ADT_Authorized__9d03cab589a7-db-table-wp_taxonomymeta.table.gz (20/28): adding to final database dump
0006.643 (0) backup_2015-10-13-2126_Impulse_Alaram_ADT_Authorized__9d03cab589a7-db-table-wp_woocommerce_api_keys.table.gz (21/28): adding to final database dump
0006.646 (0) backup_2015-10-13-2126_Impulse_Alaram_ADT_Authorized__9d03cab589a7-db-table-wp_woocommerce_attribute_taxonomies.table.gz (22/28): adding to final database dump
0006.649 (0) backup_2015-10-13-2126_Impulse_Alaram_ADT_Authorized__9d03cab589a7-db-table-wp_woocommerce_downloadable_product_permissions.table.gz (23/28): adding to final database dump
0006.653 (0) backup_2015-10-13-2126_Impulse_Alaram_ADT_Authorized__9d03cab589a7-db-table-wp_woocommerce_order_items.table.gz (24/28): adding to final database dump
0006.656 (0) backup_2015-10-13-2126_Impulse_Alaram_ADT_Authorized__9d03cab589a7-db-table-wp_woocommerce_tax_rate_locations.table.gz (25/28): adding to final database dump
0006.659 (0) backup_2015-10-13-2126_Impulse_Alaram_ADT_Authorized__9d03cab589a7-db-table-wp_woocommerce_tax_rates.table.gz (26/28): adding to final database dump
0006.662 (0) backup_2015-10-13-2126_Impulse_Alaram_ADT_Authorized__9d03cab589a7-db-table-wp_yith_wcwl.table.gz (27/28): adding to final database dump
0006.665 (0) backup_2015-10-13-2126_Impulse_Alaram_ADT_Authorized__9d03cab589a7-db-table-wp_yith_wcwl_lists.table.gz (28/28): adding to final database dump
0006.669 (0) backup_2015-10-13-2126_Impulse_Alaram_ADT_Authorized__9d03cab589a7-db.gz: finished writing out complete database file (128 Kb)
0006.681 (0) Total database tables backed up: 28 (backup_2015-10-13-2126_Impulse_Alaram_ADT_Authorized__9d03cab589a7-db.gz, size: 160333, checksum (SHA1): 276e5f629d7074c38298aedb1f7f641d2725e373)
0006.688 (0) Saving backup history
0006.699 (0) backup_2015-10-13-2126_Impulse_Alaram_ADT_Authorized__9d03cab589a7-plugins.zip: plugins: This file has not yet been successfully uploaded: will queue
0006.702 (0) backup_2015-10-13-2126_Impulse_Alaram_ADT_Authorized__9d03cab589a7-themes.zip: themes: This file has not yet been successfully uploaded: will queue
0006.705 (0) backup_2015-10-13-2126_Impulse_Alaram_ADT_Authorized__9d03cab589a7-uploads.zip: uploads: This file has not yet been successfully uploaded: will queue
0006.708 (0) backup_2015-10-13-2126_Impulse_Alaram_ADT_Authorized__9d03cab589a7-others.zip: others: This file has not yet been successfully uploaded: will queue
0006.711 (0) backup_2015-10-13-2126_Impulse_Alaram_ADT_Authorized__9d03cab589a7-db.gz: db: This file has not yet been successfully uploaded: will queue
0006.719 (0) Requesting upload of the files that have not yet been successfully uploaded (5)
0006.729 (0) Cloud backup selection (1/1): googledrive (last)
0006.732 (0) Beginning dispatch of backup to remote (googledrive)
0006.736 (0) Google Drive: this account is not authorised
0006.739 (0) An error condition has occurred for the first time during this job
0006.746 (0) Retain: beginning examination of existing backup sets; user setting: retain_files=2, retain_db=2
0006.749 (0) Number of backup sets in history: 2
0006.753 (0) Examining backup set with datestamp: 1444771592 (Oct 13 2015 21:26:32)
0006.756 (0) 1444771592: this backup set remains non-empty (1/1); will retain in history
0006.760 (0) Examining backup set with datestamp: 1444770796 (Oct 13 2015 21:13:16)
0006.763 (0) 1444770796: this backup set remains non-empty (1/1); will retain in history
0006.766 (0) Retain: saving new backup history (sets now: 2) and finishing retain operation
0006.777 (0) Resume backup (9d03cab589a7, 0): finish run
0006.784 (0) Decremented the semaphore (fd) by 1
0006.787 (0) Semaphore (fd) unlocked
0006.790 (0) There were errors in the uploads, so the 'resume' event is remaining scheduled
0006.801 (0) Rescheduling resumption 1: moving to 120 seconds from now (1444771719)
0006.808 (0) No email will/can be sent - the user has not configured an email address.
0006.811 (0) The backup has not finished; a resumption is scheduled
0128.907 (1) Opened log file at time: Tue, 13 Oct 2015 21:28:41 +0000 on http://impulsealarm.com
0128.910 (1) UpdraftPlus WordPress backup plugin (https://updraftplus.com): 1.11.12 WP: 4.3.1 PHP: 5.4.44 (Linux ip-192-169-235-156.secureserver.net 2.6.32-042stab103.6 #1 SMP Wed Jan 21 13:07:39 MSK 2015 x86_64) MySQL: 5.5.45 Server: Apache/2.4.16 (Unix) OpenSSL/1.0.1e-fips mod_bwlimited/1.4 safe_mode: 0 max_execution_time: 900 memory_limit: 256M (used: 32.3M | 32.8M) multisite: N mcrypt: Y LANG:  ZipArchive::addFile: Y
0128.912 (1) Free space on disk containing Updraft's temporary directory: 27739 Mb
0128.917 (1) Backup run: resumption=1, nonce=9d03cab589a7, begun at=1444771592 (129s ago), job type=backup, previous check-in=6.5s
0128.921 (1) Scheduling a resumption (2) after 300 seconds (1444772021) in case this run gets aborted
0128.939 (1) OpenVZ; reported memory: 2048 Mb
0128.942 (1) Checking if we have a zip executable available
0128.944 (1) Creation of backups of directories: already finished
0128.946 (1) Saving backup status to database (elements: 8)
0128.951 (1) Database dump (WordPress DB): Creation was completed already
0128.953 (1) Saving backup history
0128.962 (1) backup_2015-10-13-2126_Impulse_Alaram_ADT_Authorized__9d03cab589a7-plugins.zip: plugins: This file has not yet been successfully uploaded: will queue
0128.964 (1) backup_2015-10-13-2126_Impulse_Alaram_ADT_Authorized__9d03cab589a7-themes.zip: themes: This file has not yet been successfully uploaded: will queue
0128.966 (1) backup_2015-10-13-2126_Impulse_Alaram_ADT_Authorized__9d03cab589a7-uploads.zip: uploads: This file has not yet been successfully uploaded: will queue
0128.968 (1) backup_2015-10-13-2126_Impulse_Alaram_ADT_Authorized__9d03cab589a7-others.zip: others: This file has not yet been successfully uploaded: will queue
0128.971 (1) backup_2015-10-13-2126_Impulse_Alaram_ADT_Authorized__9d03cab589a7-db.gz: db: This file has not yet been successfully uploaded: will queue
0128.976 (1) Requesting upload of the files that have not yet been successfully uploaded (5)
0128.981 (1) Cloud backup selection (1/1): googledrive (last)
0128.987 (1) Beginning dispatch of backup to remote (googledrive)
0128.990 (1) Google Drive: this account is not authorised
0128.992 (1) An error condition has occurred for the first time during this job
0128.996 (1) Retain: beginning examination of existing backup sets; user setting: retain_files=2, retain_db=2
0128.999 (1) Number of backup sets in history: 3
0129.001 (1) Examining backup set with datestamp: 1444771592 (Oct 13 2015 21:26:32)
0129.003 (1) 1444771592: this backup set remains non-empty (1/1); will retain in history
0129.005 (1) Examining backup set with datestamp: 1444771527 (Oct 13 2015 21:25:27)
0129.008 (1) 1444771527: this backup set remains non-empty (1/1); will retain in history
0129.010 (1) Examining backup set with datestamp: 1444770796 (Oct 13 2015 21:13:16)
0129.012 (1) 1444770796: db: this set includes a database (backup_2015-10-13-2113_Impulse_Alaram_ADT_Authorized__63cd3b04e00f-db.gz); db count is now 3
0129.014 (1) 1444770796: db: over retain limit (2); will delete this database
0129.016 (1) Delete file: backup_2015-10-13-2113_Impulse_Alaram_ADT_Authorized__63cd3b04e00f-db.gz, service=googledrive
0129.018 (1) Deleting local copy (backup_2015-10-13-2113_Impulse_Alaram_ADT_Authorized__63cd3b04e00f-db.gz)
0129.021 (1) Google Drive: this account is not authorised
0129.025 (1) plugins: 1444770796: over retain limit (2); will delete this file (backup_2015-10-13-2113_Impulse_Alaram_ADT_Authorized__63cd3b04e00f-plugins.zip)
0129.027 (1) themes: 1444770796: over retain limit (2); will delete this file (backup_2015-10-13-2113_Impulse_Alaram_ADT_Authorized__63cd3b04e00f-themes.zip)
0129.029 (1) uploads: 1444770796: over retain limit (2); will delete this file (backup_2015-10-13-2113_Impulse_Alaram_ADT_Authorized__63cd3b04e00f-uploads.zip)
0129.031 (1) others: 1444770796: over retain limit (2); will delete this file (backup_2015-10-13-2113_Impulse_Alaram_ADT_Authorized__63cd3b04e00f-others.zip)
0129.033 (1) Delete file: backup_2015-10-13-2113_Impulse_Alaram_ADT_Authorized__63cd3b04e00f-plugins.zip, service=googledrive
0129.036 (1) Deleting local copy (backup_2015-10-13-2113_Impulse_Alaram_ADT_Authorized__63cd3b04e00f-plugins.zip)
0129.042 (1) Delete file: backup_2015-10-13-2113_Impulse_Alaram_ADT_Authorized__63cd3b04e00f-themes.zip, service=googledrive
0129.044 (1) Deleting local copy (backup_2015-10-13-2113_Impulse_Alaram_ADT_Authorized__63cd3b04e00f-themes.zip)
0129.048 (1) Delete file: backup_2015-10-13-2113_Impulse_Alaram_ADT_Authorized__63cd3b04e00f-uploads.zip, service=googledrive
0129.050 (1) Deleting local copy (backup_2015-10-13-2113_Impulse_Alaram_ADT_Authorized__63cd3b04e00f-uploads.zip)
0129.054 (1) Delete file: backup_2015-10-13-2113_Impulse_Alaram_ADT_Authorized__63cd3b04e00f-others.zip, service=googledrive
0129.057 (1) Deleting local copy (backup_2015-10-13-2113_Impulse_Alaram_ADT_Authorized__63cd3b04e00f-others.zip)
0129.059 (1) Google Drive: this account is not authorised
0129.063 (1) 1444770796: this backup set is now empty; will remove from history
0129.066 (1) 1444770796: deleting log file (log.63cd3b04e00f.txt)
0129.068 (1) Retain: saving new backup history (sets now: 2) and finishing retain operation
0129.075 (1) Resume backup (9d03cab589a7, 1): finish run
0129.079 (1) There were errors in the uploads, so the 'resume' event is remaining scheduled
0129.083 (1) No email will/can be sent - the user has not configured an email address.
0129.085 (1) The backup has not finished; a resumption is scheduled
0182.439 (1) Opened log file at time: Tue, 13 Oct 2015 21:29:34 +0000 on http://impulsealarm.com
0182.442 (1) UpdraftPlus WordPress backup plugin (https://updraftplus.com): 1.11.12 WP: 4.3.1 PHP: 5.4.44 (Linux ip-192-169-235-156.secureserver.net 2.6.32-042stab103.6 #1 SMP Wed Jan 21 13:07:39 MSK 2015 x86_64) MySQL: 5.5.45 Server: Apache/2.4.16 (Unix) OpenSSL/1.0.1e-fips mod_bwlimited/1.4 safe_mode: 0 max_execution_time: 900 memory_limit: 256M (used: 40.3M | 41.3M) multisite: N mcrypt: Y LANG:  ZipArchive::addFile: Y
0182.444 (1) Free space on disk containing Updraft's temporary directory: 27765.3 Mb
0182.450 (1) Backup run: resumption=1, nonce=9d03cab589a7, begun at=1444771592 (182s ago), job type=backup, previous check-in=6.5s
0182.452 (1) Scheduling a resumption (2) after 300 seconds (1444772074) in case this run gets aborted
0182.471 (1) OpenVZ; reported memory: 2048 Mb
0182.473 (1) Checking if we have a zip executable available
0182.476 (1) Creation of backups of directories: already finished
0182.479 (1) Saving backup status to database (elements: 8)
0182.484 (1) Database dump (WordPress DB): Creation was completed already
0182.487 (1) Saving backup history
0182.496 (1) backup_2015-10-13-2126_Impulse_Alaram_ADT_Authorized__9d03cab589a7-plugins.zip: plugins: This file has not yet been successfully uploaded: will queue
0182.499 (1) backup_2015-10-13-2126_Impulse_Alaram_ADT_Authorized__9d03cab589a7-themes.zip: themes: This file has not yet been successfully uploaded: will queue
0182.501 (1) backup_2015-10-13-2126_Impulse_Alaram_ADT_Authorized__9d03cab589a7-uploads.zip: uploads: This file has not yet been successfully uploaded: will queue
0182.503 (1) backup_2015-10-13-2126_Impulse_Alaram_ADT_Authorized__9d03cab589a7-others.zip: others: This file has not yet been successfully uploaded: will queue
0182.506 (1) backup_2015-10-13-2126_Impulse_Alaram_ADT_Authorized__9d03cab589a7-db.gz: db: This file has not yet been successfully uploaded: will queue
0182.512 (1) Requesting upload of the files that have not yet been successfully uploaded (5)
0182.517 (1) Cloud backup selection (1/1): googledrive (last)
0182.524 (1) Beginning dispatch of backup to remote (googledrive)
0182.526 (1) Google Drive: this account is not authorised
0182.529 (1) An error condition has occurred for the first time during this job
0182.534 (1) Retain: beginning examination of existing backup sets; user setting: retain_files=2, retain_db=2
0182.537 (1) Number of backup sets in history: 2
0182.539 (1) Examining backup set with datestamp: 1444771722 (Oct 13 2015 21:28:42)
0182.542 (1) 1444771722: this backup set remains non-empty (1/1); will retain in history
0182.544 (1) Examining backup set with datestamp: 1444771592 (Oct 13 2015 21:26:32)
0182.547 (1) 1444771592: this backup set remains non-empty (1/1); will retain in history
0182.549 (1) Retain: saving new backup history (sets now: 2) and finishing retain operation
0182.554 (1) Resume backup (9d03cab589a7, 1): finish run
0182.559 (1) There were errors in the uploads, so the 'resume' event is remaining scheduled
0182.564 (1) No email will/can be sent - the user has not configured an email address.
0182.567 (1) The backup has not finished; a resumption is scheduled
0482.924 (2) Opened log file at time: Tue, 13 Oct 2015 21:34:35 +0000 on http://impulsealarm.com
0482.926 (2) UpdraftPlus WordPress backup plugin (https://updraftplus.com): 1.11.12 WP: 4.3.1 PHP: 5.4.44 (Linux ip-192-169-235-156.secureserver.net 2.6.32-042stab103.6 #1 SMP Wed Jan 21 13:07:39 MSK 2015 x86_64) MySQL: 5.5.45 Server: Apache/2.4.16 (Unix) OpenSSL/1.0.1e-fips mod_bwlimited/1.4 safe_mode: 0 max_execution_time: 900 memory_limit: 256M (used: 32.3M | 32.8M) multisite: N mcrypt: Y LANG:  ZipArchive::addFile: Y
0482.928 (2) Free space on disk containing Updraft's temporary directory: 27764.9 Mb
0482.933 (2) Backup run: resumption=2, nonce=9d03cab589a7, begun at=1444771592 (483s ago), job type=backup, previous check-in=0.2s
0482.938 (2) Scheduling a resumption (3) after 300 seconds (1444772375) in case this run gets aborted
0482.957 (2) OpenVZ; reported memory: 2048 Mb
0482.960 (2) Checking if we have a zip executable available
0482.962 (2) Creation of backups of directories: already finished
0482.965 (2) Saving backup status to database (elements: 8)
0482.970 (2) Database dump (WordPress DB): Creation was completed already
0482.972 (2) Saving backup history
0482.981 (2) backup_2015-10-13-2126_Impulse_Alaram_ADT_Authorized__9d03cab589a7-plugins.zip: plugins: This file has not yet been successfully uploaded: will queue
0482.983 (2) backup_2015-10-13-2126_Impulse_Alaram_ADT_Authorized__9d03cab589a7-themes.zip: themes: This file has not yet been successfully uploaded: will queue
0482.985 (2) backup_2015-10-13-2126_Impulse_Alaram_ADT_Authorized__9d03cab589a7-uploads.zip: uploads: This file has not yet been successfully uploaded: will queue
0482.988 (2) backup_2015-10-13-2126_Impulse_Alaram_ADT_Authorized__9d03cab589a7-others.zip: others: This file has not yet been successfully uploaded: will queue
0482.990 (2) backup_2015-10-13-2126_Impulse_Alaram_ADT_Authorized__9d03cab589a7-db.gz: db: This file has not yet been successfully uploaded: will queue
0482.995 (2) Requesting upload of the files that have not yet been successfully uploaded (5)
0483.000 (2) Cloud backup selection (1/1): googledrive (last)
0483.007 (2) Beginning dispatch of backup to remote (googledrive)
0483.010 (2) Google Drive: this account is not authorised
0483.012 (2) An error condition has occurred for the first time during this job
0483.018 (2) Retain: beginning examination of existing backup sets; user setting: retain_files=2, retain_db=2
0483.021 (2) Number of backup sets in history: 2
0483.024 (2) Examining backup set with datestamp: 1444771722 (Oct 13 2015 21:28:42)
0483.026 (2) 1444771722: this backup set remains non-empty (1/1); will retain in history
0483.029 (2) Examining backup set with datestamp: 1444771592 (Oct 13 2015 21:26:32)
0483.031 (2) 1444771592: this backup set remains non-empty (1/1); will retain in history
0483.033 (2) Retain: saving new backup history (sets now: 2) and finishing retain operation
0483.038 (2) Resume backup (9d03cab589a7, 2): finish run
0483.043 (2) There were errors in the uploads, so the 'resume' event is remaining scheduled
0483.048 (2) No email will/can be sent - the user has not configured an email address.
0483.051 (2) The backup has not finished; a resumption is scheduled
0806.644 (3) Opened log file at time: Tue, 13 Oct 2015 21:39:59 +0000 on http://impulsealarm.com
0806.647 (3) UpdraftPlus WordPress backup plugin (https://updraftplus.com): 1.11.12 WP: 4.3.1 PHP: 5.4.44 (Linux ip-192-169-235-156.secureserver.net 2.6.32-042stab103.6 #1 SMP Wed Jan 21 13:07:39 MSK 2015 x86_64) MySQL: 5.5.45 Server: Apache/2.4.16 (Unix) OpenSSL/1.0.1e-fips mod_bwlimited/1.4 safe_mode: 0 max_execution_time: 900 memory_limit: 256M (used: 32.3M | 32.8M) multisite: N mcrypt: Y LANG:  ZipArchive::addFile: Y
0806.649 (3) Free space on disk containing Updraft's temporary directory: 27764.5 Mb
0806.654 (3) Backup run: resumption=3, nonce=9d03cab589a7, begun at=1444771592 (807s ago), job type=backup
0806.658 (3) Scheduling a resumption (4) after 300 seconds (1444772699) in case this run gets aborted
0806.676 (3) OpenVZ; reported memory: 2048 Mb
0806.678 (3) Checking if we have a zip executable available
0806.680 (3) Creation of backups of directories: already finished
0806.682 (3) Saving backup status to database (elements: 8)
0806.688 (3) Database dump (WordPress DB): Creation was completed already
0806.690 (3) Saving backup history
0806.698 (3) backup_2015-10-13-2126_Impulse_Alaram_ADT_Authorized__9d03cab589a7-plugins.zip: plugins: This file has not yet been successfully uploaded: will queue
0806.700 (3) backup_2015-10-13-2126_Impulse_Alaram_ADT_Authorized__9d03cab589a7-themes.zip: themes: This file has not yet been successfully uploaded: will queue
0806.702 (3) backup_2015-10-13-2126_Impulse_Alaram_ADT_Authorized__9d03cab589a7-uploads.zip: uploads: This file has not yet been successfully uploaded: will queue
0806.704 (3) backup_2015-10-13-2126_Impulse_Alaram_ADT_Authorized__9d03cab589a7-others.zip: others: This file has not yet been successfully uploaded: will queue
0806.706 (3) backup_2015-10-13-2126_Impulse_Alaram_ADT_Authorized__9d03cab589a7-db.gz: db: This file has not yet been successfully uploaded: will queue
0806.712 (3) Requesting upload of the files that have not yet been successfully uploaded (5)
0806.716 (3) Cloud backup selection (1/1): googledrive (last)
0806.722 (3) Beginning dispatch of backup to remote (googledrive)
0806.724 (3) Google Drive: this account is not authorised
0806.726 (3) An error condition has occurred for the first time during this job
0806.731 (3) Retain: beginning examination of existing backup sets; user setting: retain_files=2, retain_db=2
0806.734 (3) Number of backup sets in history: 2
0806.736 (3) Examining backup set with datestamp: 1444771722 (Oct 13 2015 21:28:42)
0806.739 (3) 1444771722: this backup set remains non-empty (1/1); will retain in history
0806.741 (3) Examining backup set with datestamp: 1444771592 (Oct 13 2015 21:26:32)
0806.743 (3) 1444771592: this backup set remains non-empty (1/1); will retain in history
0806.745 (3) Retain: saving new backup history (sets now: 2) and finishing retain operation
0806.750 (3) Resume backup (9d03cab589a7, 3): finish run
0806.754 (3) There were errors in the uploads, so the 'resume' event is remaining scheduled
0806.759 (3) No email will/can be sent - the user has not configured an email address.
0806.761 (3) The backup has not finished; a resumption is scheduled
1112.549 (4) Opened log file at time: Tue, 13 Oct 2015 21:45:04 +0000 on http://impulsealarm.com
1112.551 (4) UpdraftPlus WordPress backup plugin (https://updraftplus.com): 1.11.12 WP: 4.3.1 PHP: 5.4.44 (Linux ip-192-169-235-156.secureserver.net 2.6.32-042stab103.6 #1 SMP Wed Jan 21 13:07:39 MSK 2015 x86_64) MySQL: 5.5.45 Server: Apache/2.4.16 (Unix) OpenSSL/1.0.1e-fips mod_bwlimited/1.4 safe_mode: 0 max_execution_time: 900 memory_limit: 256M (used: 32.3M | 32.8M) multisite: N mcrypt: Y LANG:  ZipArchive::addFile: Y
1112.553 (4) Free space on disk containing Updraft's temporary directory: 27764.2 Mb
1112.558 (4) Backup run: resumption=4, nonce=9d03cab589a7, begun at=1444771592 (1112s ago), job type=backup
1112.563 (4) Scheduling a resumption (5) after 300 seconds (1444773004) in case this run gets aborted
1112.580 (4) OpenVZ; reported memory: 2048 Mb
1112.583 (4) Checking if we have a zip executable available
1112.585 (4) Creation of backups of directories: already finished
1112.587 (4) Saving backup status to database (elements: 8)
1112.592 (4) Database dump (WordPress DB): Creation was completed already
1112.594 (4) Saving backup history
1112.602 (4) backup_2015-10-13-2126_Impulse_Alaram_ADT_Authorized__9d03cab589a7-plugins.zip: plugins: This file has not yet been successfully uploaded: will queue
1112.605 (4) backup_2015-10-13-2126_Impulse_Alaram_ADT_Authorized__9d03cab589a7-themes.zip: themes: This file has not yet been successfully uploaded: will queue
1112.607 (4) backup_2015-10-13-2126_Impulse_Alaram_ADT_Authorized__9d03cab589a7-uploads.zip: uploads: This file has not yet been successfully uploaded: will queue
1112.609 (4) backup_2015-10-13-2126_Impulse_Alaram_ADT_Authorized__9d03cab589a7-others.zip: others: This file has not yet been successfully uploaded: will queue
1112.611 (4) backup_2015-10-13-2126_Impulse_Alaram_ADT_Authorized__9d03cab589a7-db.gz: db: This file has not yet been successfully uploaded: will queue
1112.616 (4) Requesting upload of the files that have not yet been successfully uploaded (5)
1112.621 (4) Cloud backup selection (1/1): googledrive (last)
1112.627 (4) Beginning dispatch of backup to remote (googledrive)
1112.629 (4) Google Drive: this account is not authorised
1112.631 (4) An error condition has occurred for the first time during this job
1112.636 (4) Retain: beginning examination of existing backup sets; user setting: retain_files=2, retain_db=2
1112.639 (4) Number of backup sets in history: 2
1112.641 (4) Examining backup set with datestamp: 1444771722 (Oct 13 2015 21:28:42)
1112.644 (4) 1444771722: this backup set remains non-empty (1/1); will retain in history
1112.646 (4) Examining backup set with datestamp: 1444771592 (Oct 13 2015 21:26:32)
1112.648 (4) 1444771592: this backup set remains non-empty (1/1); will retain in history
1112.650 (4) Retain: saving new backup history (sets now: 2) and finishing retain operation
1112.655 (4) Resume backup (9d03cab589a7, 4): finish run
1112.660 (4) There were errors in the uploads, so the 'resume' event is remaining scheduled
1112.666 (4) No email will/can be sent - the user has not configured an email address.
1112.669 (4) The backup has not finished; a resumption is scheduled
1412.516 (5) Opened log file at time: Tue, 13 Oct 2015 21:50:04 +0000 on http://impulsealarm.com
1412.519 (5) UpdraftPlus WordPress backup plugin (https://updraftplus.com): 1.11.12 WP: 4.3.1 PHP: 5.4.44 (Linux ip-192-169-235-156.secureserver.net 2.6.32-042stab103.6 #1 SMP Wed Jan 21 13:07:39 MSK 2015 x86_64) MySQL: 5.5.45 Server: Apache/2.4.16 (Unix) OpenSSL/1.0.1e-fips mod_bwlimited/1.4 safe_mode: 0 max_execution_time: 900 memory_limit: 256M (used: 32.3M | 32.8M) multisite: N mcrypt: Y LANG:  ZipArchive::addFile: Y
1412.521 (5) Free space on disk containing Updraft's temporary directory: 27763.9 Mb
1412.525 (5) Backup run: resumption=5, nonce=9d03cab589a7, begun at=1444771592 (1412s ago), job type=backup
1412.530 (5) Scheduling a resumption (6) after 300 seconds (1444773304) in case this run gets aborted
1412.548 (5) OpenVZ; reported memory: 2048 Mb
1412.550 (5) Checking if we have a zip executable available
1412.553 (5) Creation of backups of directories: already finished
1412.555 (5) Saving backup status to database (elements: 8)
1412.560 (5) Database dump (WordPress DB): Creation was completed already
1412.562 (5) Saving backup history
1412.570 (5) backup_2015-10-13-2126_Impulse_Alaram_ADT_Authorized__9d03cab589a7-plugins.zip: plugins: This file has not yet been successfully uploaded: will queue
1412.572 (5) backup_2015-10-13-2126_Impulse_Alaram_ADT_Authorized__9d03cab589a7-themes.zip: themes: This file has not yet been successfully uploaded: will queue
1412.574 (5) backup_2015-10-13-2126_Impulse_Alaram_ADT_Authorized__9d03cab589a7-uploads.zip: uploads: This file has not yet been successfully uploaded: will queue
1412.576 (5) backup_2015-10-13-2126_Impulse_Alaram_ADT_Authorized__9d03cab589a7-others.zip: others: This file has not yet been successfully uploaded: will queue
1412.579 (5) backup_2015-10-13-2126_Impulse_Alaram_ADT_Authorized__9d03cab589a7-db.gz: db: This file has not yet been successfully uploaded: will queue
1412.584 (5) Requesting upload of the files that have not yet been successfully uploaded (5)
1412.589 (5) Cloud backup selection (1/1): googledrive (last)
1412.595 (5) Beginning dispatch of backup to remote (googledrive)
1412.598 (5) Google Drive: this account is not authorised
1412.600 (5) An error condition has occurred for the first time during this job
1412.605 (5) Retain: beginning examination of existing backup sets; user setting: retain_files=2, retain_db=2
1412.607 (5) Number of backup sets in history: 2
1412.610 (5) Examining backup set with datestamp: 1444771722 (Oct 13 2015 21:28:42)
1412.612 (5) 1444771722: this backup set remains non-empty (1/1); will retain in history
1412.614 (5) Examining backup set with datestamp: 1444771592 (Oct 13 2015 21:26:32)
1412.616 (5) 1444771592: this backup set remains non-empty (1/1); will retain in history
1412.618 (5) Retain: saving new backup history (sets now: 2) and finishing retain operation
1412.623 (5) Resume backup (9d03cab589a7, 5): finish run
1412.627 (5) There were errors in the uploads, so the 'resume' event is remaining scheduled
1412.632 (5) No email will/can be sent - the user has not configured an email address.
1412.634 (5) The backup has not finished; a resumption is scheduled
1712.524 (6) Opened log file at time: Tue, 13 Oct 2015 21:55:04 +0000 on http://impulsealarm.com
1712.527 (6) UpdraftPlus WordPress backup plugin (https://updraftplus.com): 1.11.12 WP: 4.3.1 PHP: 5.4.44 (Linux ip-192-169-235-156.secureserver.net 2.6.32-042stab103.6 #1 SMP Wed Jan 21 13:07:39 MSK 2015 x86_64) MySQL: 5.5.45 Server: Apache/2.4.16 (Unix) OpenSSL/1.0.1e-fips mod_bwlimited/1.4 safe_mode: 0 max_execution_time: 900 memory_limit: 256M (used: 32.3M | 32.8M) multisite: N mcrypt: Y LANG:  ZipArchive::addFile: Y
1712.529 (6) Free space on disk containing Updraft's temporary directory: 27763.6 Mb
1712.533 (6) Backup run: resumption=6, nonce=9d03cab589a7, begun at=1444771592 (1712s ago), job type=backup
1712.538 (6) Scheduling a resumption (7) after 300 seconds (1444773604) in case this run gets aborted
1712.556 (6) OpenVZ; reported memory: 2048 Mb
1712.559 (6) Checking if we have a zip executable available
1712.561 (6) Creation of backups of directories: already finished
1712.563 (6) Saving backup status to database (elements: 8)
1712.568 (6) Database dump (WordPress DB): Creation was completed already
1712.570 (6) Saving backup history
1712.578 (6) backup_2015-10-13-2126_Impulse_Alaram_ADT_Authorized__9d03cab589a7-plugins.zip: plugins: This file has not yet been successfully uploaded: will queue
1712.580 (6) backup_2015-10-13-2126_Impulse_Alaram_ADT_Authorized__9d03cab589a7-themes.zip: themes: This file has not yet been successfully uploaded: will queue
1712.583 (6) backup_2015-10-13-2126_Impulse_Alaram_ADT_Authorized__9d03cab589a7-uploads.zip: uploads: This file has not yet been successfully uploaded: will queue
1712.585 (6) backup_2015-10-13-2126_Impulse_Alaram_ADT_Authorized__9d03cab589a7-others.zip: others: This file has not yet been successfully uploaded: will queue
1712.587 (6) backup_2015-10-13-2126_Impulse_Alaram_ADT_Authorized__9d03cab589a7-db.gz: db: This file has not yet been successfully uploaded: will queue
1712.591 (6) Requesting upload of the files that have not yet been successfully uploaded (5)
1712.596 (6) Cloud backup selection (1/1): googledrive (last)
1712.602 (6) Beginning dispatch of backup to remote (googledrive)
1712.605 (6) Google Drive: this account is not authorised
1712.607 (6) An error condition has occurred for the first time during this job
1712.612 (6) Retain: beginning examination of existing backup sets; user setting: retain_files=2, retain_db=2
1712.614 (6) Number of backup sets in history: 2
1712.617 (6) Examining backup set with datestamp: 1444771722 (Oct 13 2015 21:28:42)
1712.619 (6) 1444771722: this backup set remains non-empty (1/1); will retain in history
1712.621 (6) Examining backup set with datestamp: 1444771592 (Oct 13 2015 21:26:32)
1712.623 (6) 1444771592: this backup set remains non-empty (1/1); will retain in history
1712.625 (6) Retain: saving new backup history (sets now: 2) and finishing retain operation
1712.630 (6) Resume backup (9d03cab589a7, 6): finish run
1712.634 (6) There were errors in the uploads, so the 'resume' event is remaining scheduled
1712.639 (6) No email will/can be sent - the user has not configured an email address.
1712.641 (6) The backup has not finished; a resumption is scheduled
2012.561 (7) Opened log file at time: Tue, 13 Oct 2015 22:00:04 +0000 on http://impulsealarm.com
2012.563 (7) UpdraftPlus WordPress backup plugin (https://updraftplus.com): 1.11.12 WP: 4.3.1 PHP: 5.4.44 (Linux ip-192-169-235-156.secureserver.net 2.6.32-042stab103.6 #1 SMP Wed Jan 21 13:07:39 MSK 2015 x86_64) MySQL: 5.5.45 Server: Apache/2.4.16 (Unix) OpenSSL/1.0.1e-fips mod_bwlimited/1.4 safe_mode: 0 max_execution_time: 900 memory_limit: 256M (used: 32.3M | 32.8M) multisite: N mcrypt: Y LANG:  ZipArchive::addFile: Y
2012.565 (7) Free space on disk containing Updraft's temporary directory: 27763.3 Mb
2012.571 (7) Backup run: resumption=7, nonce=9d03cab589a7, begun at=1444771592 (2012s ago), job type=backup
2012.576 (7) Scheduling a resumption (8) after 300 seconds (1444773904) in case this run gets aborted
2012.594 (7) OpenVZ; reported memory: 2048 Mb
2012.597 (7) Checking if we have a zip executable available
2012.599 (7) Creation of backups of directories: already finished
2012.601 (7) Saving backup status to database (elements: 8)
2012.606 (7) Database dump (WordPress DB): Creation was completed already
2012.609 (7) Saving backup history
2012.617 (7) backup_2015-10-13-2126_Impulse_Alaram_ADT_Authorized__9d03cab589a7-plugins.zip: plugins: This file has not yet been successfully uploaded: will queue
2012.619 (7) backup_2015-10-13-2126_Impulse_Alaram_ADT_Authorized__9d03cab589a7-themes.zip: themes: This file has not yet been successfully uploaded: will queue
2012.622 (7) backup_2015-10-13-2126_Impulse_Alaram_ADT_Authorized__9d03cab589a7-uploads.zip: uploads: This file has not yet been successfully uploaded: will queue
2012.624 (7) backup_2015-10-13-2126_Impulse_Alaram_ADT_Authorized__9d03cab589a7-others.zip: others: This file has not yet been successfully uploaded: will queue
2012.626 (7) backup_2015-10-13-2126_Impulse_Alaram_ADT_Authorized__9d03cab589a7-db.gz: db: This file has not yet been successfully uploaded: will queue
2012.631 (7) Requesting upload of the files that have not yet been successfully uploaded (5)
2012.636 (7) Cloud backup selection (1/1): googledrive (last)
2012.642 (7) Beginning dispatch of backup to remote (googledrive)
2012.644 (7) Google Drive: this account is not authorised
2012.646 (7) An error condition has occurred for the first time during this job
2012.651 (7) Retain: beginning examination of existing backup sets; user setting: retain_files=2, retain_db=2
2012.653 (7) Number of backup sets in history: 2
2012.656 (7) Examining backup set with datestamp: 1444771722 (Oct 13 2015 21:28:42)
2012.658 (7) 1444771722: this backup set remains non-empty (1/1); will retain in history
2012.660 (7) Examining backup set with datestamp: 1444771592 (Oct 13 2015 21:26:32)
2012.662 (7) 1444771592: this backup set remains non-empty (1/1); will retain in history
2012.664 (7) Retain: saving new backup history (sets now: 2) and finishing retain operation
2012.669 (7) Resume backup (9d03cab589a7, 7): finish run
2012.673 (7) There were errors in the uploads, so the 'resume' event is remaining scheduled
2012.678 (7) No email will/can be sent - the user has not configured an email address.
2012.680 (7) The backup has not finished; a resumption is scheduled
2312.946 (8) Opened log file at time: Tue, 13 Oct 2015 22:05:05 +0000 on http://impulsealarm.com
2312.949 (8) UpdraftPlus WordPress backup plugin (https://updraftplus.com): 1.11.12 WP: 4.3.1 PHP: 5.4.44 (Linux ip-192-169-235-156.secureserver.net 2.6.32-042stab103.6 #1 SMP Wed Jan 21 13:07:39 MSK 2015 x86_64) MySQL: 5.5.45 Server: Apache/2.4.16 (Unix) OpenSSL/1.0.1e-fips mod_bwlimited/1.4 safe_mode: 0 max_execution_time: 900 memory_limit: 256M (used: 32.3M | 32.8M) multisite: N mcrypt: Y LANG:  ZipArchive::addFile: Y
2312.951 (8) Free space on disk containing Updraft's temporary directory: 27762.8 Mb
2312.956 (8) Backup run: resumption=8, nonce=9d03cab589a7, begun at=1444771592 (2313s ago), job type=backup
2312.960 (8) Scheduling a resumption (9) after 300 seconds (1444774205) in case this run gets aborted
2312.978 (8) OpenVZ; reported memory: 2048 Mb
2312.981 (8) Checking if we have a zip executable available
2312.983 (8) Creation of backups of directories: already finished
2312.985 (8) Saving backup status to database (elements: 8)
2312.990 (8) Database dump (WordPress DB): Creation was completed already
2312.993 (8) Saving backup history
2313.001 (8) backup_2015-10-13-2126_Impulse_Alaram_ADT_Authorized__9d03cab589a7-plugins.zip: plugins: This file has not yet been successfully uploaded: will queue
2313.003 (8) backup_2015-10-13-2126_Impulse_Alaram_ADT_Authorized__9d03cab589a7-themes.zip: themes: This file has not yet been successfully uploaded: will queue
2313.005 (8) backup_2015-10-13-2126_Impulse_Alaram_ADT_Authorized__9d03cab589a7-uploads.zip: uploads: This file has not yet been successfully uploaded: will queue
2313.007 (8) backup_2015-10-13-2126_Impulse_Alaram_ADT_Authorized__9d03cab589a7-others.zip: others: This file has not yet been successfully uploaded: will queue
2313.009 (8) backup_2015-10-13-2126_Impulse_Alaram_ADT_Authorized__9d03cab589a7-db.gz: db: This file has not yet been successfully uploaded: will queue
2313.014 (8) Requesting upload of the files that have not yet been successfully uploaded (5)
2313.019 (8) Cloud backup selection (1/1): googledrive (last)
2313.025 (8) Beginning dispatch of backup to remote (googledrive)
2313.028 (8) Google Drive: this account is not authorised
2313.030 (8) An error condition has occurred for the first time during this job
2313.035 (8) Retain: beginning examination of existing backup sets; user setting: retain_files=2, retain_db=2
2313.038 (8) Number of backup sets in history: 2
2313.040 (8) Examining backup set with datestamp: 1444771722 (Oct 13 2015 21:28:42)
2313.042 (8) 1444771722: this backup set remains non-empty (1/1); will retain in history
2313.045 (8) Examining backup set with datestamp: 1444771592 (Oct 13 2015 21:26:32)
2313.047 (8) 1444771592: this backup set remains non-empty (1/1); will retain in history
2313.049 (8) Retain: saving new backup history (sets now: 2) and finishing retain operation
2313.054 (8) Resume backup (9d03cab589a7, 8): finish run
2313.058 (8) There were errors in the uploads, so the 'resume' event is remaining scheduled
2313.063 (8) No email will/can be sent - the user has not configured an email address.
2313.065 (8) The backup has not finished; a resumption is scheduled
2631.822 (9) Opened log file at time: Tue, 13 Oct 2015 22:10:24 +0000 on http://impulsealarm.com
2631.824 (9) UpdraftPlus WordPress backup plugin (https://updraftplus.com): 1.11.12 WP: 4.3.1 PHP: 5.4.44 (Linux ip-192-169-235-156.secureserver.net 2.6.32-042stab103.6 #1 SMP Wed Jan 21 13:07:39 MSK 2015 x86_64) MySQL: 5.5.45 Server: Apache/2.4.16 (Unix) OpenSSL/1.0.1e-fips mod_bwlimited/1.4 safe_mode: 0 max_execution_time: 900 memory_limit: 256M (used: 32.4M | 32.8M) multisite: N mcrypt: Y LANG:  ZipArchive::addFile: Y
2631.826 (9) Free space on disk containing Updraft's temporary directory: 27762.4 Mb
2631.831 (9) Backup run: resumption=9, nonce=9d03cab589a7, begun at=1444771592 (2632s ago), job type=backup
2631.836 (9) The current run is resumption number 9, and there was nothing useful done on the last run (last useful run: 0) - will not schedule a further attempt until we see something useful happening this time
2631.851 (9) Creation of backups of directories: already finished
2631.854 (9) Saving backup status to database (elements: 8)
2631.859 (9) Database dump (WordPress DB): Creation was completed already
2631.861 (9) Saving backup history
2631.869 (9) backup_2015-10-13-2126_Impulse_Alaram_ADT_Authorized__9d03cab589a7-plugins.zip: plugins: This file has not yet been successfully uploaded: will queue
2631.871 (9) backup_2015-10-13-2126_Impulse_Alaram_ADT_Authorized__9d03cab589a7-themes.zip: themes: This file has not yet been successfully uploaded: will queue
2631.874 (9) backup_2015-10-13-2126_Impulse_Alaram_ADT_Authorized__9d03cab589a7-uploads.zip: uploads: This file has not yet been successfully uploaded: will queue
2631.876 (9) backup_2015-10-13-2126_Impulse_Alaram_ADT_Authorized__9d03cab589a7-others.zip: others: This file has not yet been successfully uploaded: will queue
2631.878 (9) backup_2015-10-13-2126_Impulse_Alaram_ADT_Authorized__9d03cab589a7-db.gz: db: This file has not yet been successfully uploaded: will queue
2631.883 (9) Requesting upload of the files that have not yet been successfully uploaded (5)
2631.888 (9) Cloud backup selection (1/1): googledrive (last)
2631.894 (9) Beginning dispatch of backup to remote (googledrive)
2631.897 (9) Google Drive: this account is not authorised
2631.899 (9) An error condition has occurred for the first time during this job
2631.904 (9) Retain: beginning examination of existing backup sets; user setting: retain_files=2, retain_db=2
2631.906 (9) Number of backup sets in history: 2
2631.909 (9) Examining backup set with datestamp: 1444771722 (Oct 13 2015 21:28:42)
2631.911 (9) 1444771722: this backup set remains non-empty (1/1); will retain in history
2631.913 (9) Examining backup set with datestamp: 1444771592 (Oct 13 2015 21:26:32)
2631.915 (9) 1444771592: this backup set remains non-empty (1/1); will retain in history
2631.918 (9) Retain: saving new backup history (sets now: 2) and finishing retain operation
2631.923 (9) Resume backup (9d03cab589a7, 9): finish run
2631.927 (9) There were errors in the uploads, so the 'resume' event is remaining scheduled
2631.932 (9) No email will/can be sent - the user has not configured an email address.
2631.934 (9) The backup attempt has finished, apparently unsuccessfully
